<?xml version="1.0" encoding="utf-8"?>
<!-- Generator: Adobe Illustrator 19.1.1, SVG Export Plug-In . SVG Version: 6.00 Build 0)  -->
<svg version="1.1" id="Layer_1" xmlns="http://www.w3.org/2000/svg" xmlns:xlink="http://www.w3.org/1999/xlink" x="0px" y="0px"
	 viewBox="0 0 17 23" style="enable-background:new 0 0 17 23;" xml:space="preserve">
<style type="text/css">
	.st0{fill:#010101;}
</style>
<path class="st0" d="M15.6,1.5c0.5,2-0.2,3.7-0.9,5.6c-0.7,1.7-1.3,3.5-2,5.2c-1,2.8-1.8,5.9-3.4,8.4c-0.7,1.2-2,1.2-3.2,1.1
	c-1.7-0.2-4.7-0.5-4.8-2.7c-0.1-1.5,0.7-3.1,1.1-4.5c0.6-1.8,1.1-3.7,1.7-5.5C4.8,7.4,5.4,5.6,6.2,4C6.6,3.2,7,2.5,7.4,1.9
	C7.6,1.6,7.8,1.4,8,1.2c-0.1,0.1-0.3,0,0.1,0c2.1,0.2,5.2,1.1,4.4,3.8c-0.9,2.8-1.8,5.6-2.9,8.3c-0.5,1.2-1.1,2.4-2,3.5
	c-1,1.2-3,0.6-2.8-1.1c0.1-0.9,0.6-1.8,0.9-2.7C6.7,10.6,8,8.1,9.7,6.1C10.1,5.6,9.3,5,8.8,5.5c-2.2,2.7-4,6.2-5,9.6
	c-0.7,2.4,1.9,4.3,4,2.8c2-1.4,3-5,3.8-7.2c0.8-2.1,1.4-4.2,2.1-6.3c0.7-2.4-2.5-3.7-4.2-4.1C9,0.3,8.1-0.1,7.6,0.2
	C6.7,0.6,6,2.1,5.6,2.9C3.9,6.2,2.7,9.8,1.7,13.4c-0.6,2.2-2.3,5.3-0.8,7.5c1.2,1.8,5.2,2.2,7.2,1.9c2-0.3,2.7-2.6,3.4-4.2
	c1.1-2.8,2.1-5.7,3.2-8.5c1-2.8,2.8-5.7,2-8.8C16.5,0.6,15.5,0.8,15.6,1.5"/>
</svg>
