<?xml version="1.0" encoding="utf-8"?>
<!-- Generator: Adobe Illustrator 19.1.1, SVG Export Plug-In . SVG Version: 6.00 Build 0)  -->
<svg version="1.1" id="Layer_1" xmlns="http://www.w3.org/2000/svg" xmlns:xlink="http://www.w3.org/1999/xlink" x="0px" y="0px"
	 viewBox="0 0 60 37.5" style="enable-background:new 0 0 60 37.5;" xml:space="preserve">
<style type="text/css">
	.st0{fill:none;stroke:#000000;stroke-width:0.25;stroke-miterlimit:10;}
</style>
<path d="M18,17.6c0.5,1,0.1,1.9-0.3,2.8c-0.2,0.5-0.5,1-0.6,1.5c-0.3,1.3-0.3,2.6,0.8,3.7c0.5-0.1,1-0.1,1.5-0.2
	c-0.2-0.7-0.5-1.2-0.6-1.8c-0.2-0.8-0.1-1.6,0.2-2.4c0.3-0.8,0.6-1.7,0.9-2.6c0.2-0.7,0.2-1.4-0.2-2C19.1,16.9,18.6,17.2,18,17.6
	 M35.4,6.3c0.5,0.1,1,0.3,1.5,0.4c1.4,0.4,2.2,1.4,2.5,2.8c0.1,0.4,0.1,0.7,0.1,1.1c0,1.6,0.7,2.9,2,3.7c0.6,0.4,1.2,0.8,1.8,1.2
	c0.8,0.6,1.4,1.4,1.4,2.4c0,0.3,0.1,0.6,0.1,0.9c0,1,0.5,1.7,1.3,2.2c0.4,0.3,0.8,0.6,1.3,0.9c0.4-0.1,0.9-0.1,1.5-0.2
	c-0.1-0.1-0.1-0.2-0.2-0.2c-1.1-0.6-1.6-1.4-1.3-2.7c0.1-0.5-0.1-1-0.5-1.3c-0.2-0.2-0.4-0.5-0.7-0.7c-0.6-0.5-1.3-1-2-1.5
	c-1.4-1.1-2.5-2.5-3-4.2c-0.3-0.9-0.5-1.9-0.7-2.8c-0.2-0.9-0.7-1.5-1.6-1.9c-0.7-0.3-1.5-0.4-2.3-0.7C36.3,5.6,35.8,5.8,35.4,6.3
	 M2.7,27.5c4.7-0.6,9.4-1.3,14.1-1.9c-0.8-1.9-0.8-3.3,0-5.2c0.2-0.4,0.3-0.8,0.5-1.1c0.2-0.4,0.2-0.7,0-1.2
	C12.3,21.1,7.4,24.1,2.7,27.5 M54.3,31.2c0.8-0.5,1.4-0.9,1.6-1.7c0.2-0.8,0.4-1.6,0.6-2.3c0.4-1.6,0.7-3.3,1.1-4.9
	c0.2-0.8,0.6-1.4,1.2-1.9c0.6-0.5,0.6-0.9,0-1.5c-0.4-0.4-0.7-0.7-1.1-1.1c-1.6-1.8-2.4-3.8-1.7-6.3c0.2-0.5,0.1-1.1,0-1.7
	c-0.1-0.6-0.4-0.9-1-1c-1.2-0.3-2.4-0.7-3.5-1.2c-1.1-0.5-2.1-1.1-2.6-2.3c-0.3-0.8-0.9-1.2-1.7-1.4c-1-0.3-2-0.6-3.1-1
	c-0.5-0.2-1-0.5-1.3-1c-0.3-0.7-0.9-0.8-1.6-0.8c-0.4,0-0.7,0-1.1,0.1C39.2,1.4,38.8,2,38.9,3c1.8,0.7,3.6,1.4,5.4,2.1
	c1.1,0.4,2,1.1,2.9,1.8c2.6,2.3,4.8,5,6.6,7.9c1,1.6,1.6,3.4,1.9,5.3c0.1,0.5,0,1.1,0,1.6c0,0.4-0.2,0.8-0.2,1.3
	c-0.1,2-0.2,4-0.6,5.9C54.7,29.6,54.5,30.3,54.3,31.2 M54.6,21.1c-0.2-2-0.8-3.8-1.8-5.5c-1.7-2.9-3.8-5.5-6.4-7.7
	c-0.7-0.6-1.5-1.1-2.3-1.5c-1.6-0.7-3.2-1.3-4.8-2c-0.7-0.3-1.2-0.1-1.7,0.4C37.7,4.9,37.9,4.9,38,5c0.6,0.2,1.2,0.4,1.7,0.6
	c1,0.5,1.7,1.2,1.9,2.3c0.1,0.6,0.3,1.1,0.4,1.7c0.4,2.2,1.6,4,3.5,5.3c0.6,0.4,1.1,0.8,1.6,1.2c1,0.8,1.7,1.8,1.4,3.2
	c-0.1,0.5,0.1,0.8,0.5,1c0.5,0.3,1,0.6,1.5,0.8c0.2,0.1,0.5,0.2,0.7,0.2C52.4,21.3,53.5,21.2,54.6,21.1 M54.6,22.1
	c-0.2,0-0.3,0-0.3,0c-2.5,0.3-5,0.7-7.5,1c-3.5,0.5-6.9,0.9-10.4,1.4c-4,0.5-7.9,1-11.9,1.4c-4,0.4-7.9,0.8-11.9,1.2
	c-3.2,0.4-6.3,0.8-9.4,1.2c-0.6,0.1-1.1,0.1-1.7,0.2c0,0.6-0.1,1.1,0.2,1.7c0.7-0.1,1.4-0.1,2.1-0.2c2.8-0.3,5.6-0.6,8.4-1
	c3.6-0.4,7.3-0.8,10.9-1.2c3.8-0.4,7.6-0.8,11.4-1.1c2.5-0.3,4.9-0.5,7.4-0.8c2.9-0.3,5.7-0.6,8.6-0.7c1.3,0,2.6-0.2,4-0.3
	C54.4,23.9,54.5,23.1,54.6,22.1 M33.2,23.9c-0.2-0.3-0.4-0.5-0.6-0.6c-0.9-0.9-1-1.9-0.5-3c0.2-0.4,0.4-0.8,0.5-1.1
	c0.1-0.5,0.3-0.9,0.3-1.4c0-1-0.2-1.3-1.1-1.7c-0.8-0.4-1.7-0.8-2.5-1.2c-1-0.5-1.6-1.4-2.1-2.5c-0.1-0.1-0.1-0.3-0.2-0.4
	c-2.2,1.4-4.4,2.8-6.5,4.1c0.6,1.5,0.6,1.8,0.2,3c-0.2,0.7-0.4,1.3-0.7,2c-0.6,1.5-0.6,2.9,0.5,4.3C24.6,24.9,28.9,24.5,33.2,23.9
	 M30,9.9c0.1,0.3,0.2,0.5,0.3,0.8c0.4,0.9,1,1.6,2,1.9c0.7,0.2,1.4,0.4,2.1,0.7c0.4,0.1,0.7,0.3,1,0.6c1.2,1,1.9,3.1,1.2,4.7
	c-0.2,0.6-0.4,1.2-0.7,1.8c-0.2,0.4-0.2,0.8,0.1,1.1c0.3,0.4,0.6,0.8,0.9,1.2c0.1,0.2,0.3,0.3,0.2,0.6c-0.2,0.3-0.4,0.2-0.7,0.1
	c-0.2-0.1-0.3-0.2-0.5-0.4c-0.3-0.3-0.5-0.7-0.8-1.1c-0.4-0.6-0.5-1.3-0.2-2c0.3-0.6,0.5-1.2,0.7-1.8c0.5-1.2-0.5-3.5-1.9-3.8
	c-0.7-0.1-1.3-0.4-1.9-0.6c-1.3-0.4-2-1.2-2.5-2.4c-0.1-0.2-0.2-0.4-0.3-0.6c-0.5,0.3-0.9,0.6-1.3,0.9c0.4,1.2,1.1,2.1,2.3,2.7
	c0.8,0.4,1.5,0.7,2.3,1.1c1,0.4,1.6,1.2,1.7,2.3c0,0.7,0,1.4-0.3,2c-0.2,0.4-0.3,0.8-0.5,1.2c-0.3,0.7-0.2,1.4,0.3,2
	c0.3,0.3,0.5,0.7,0.9,1.1c3.7-0.5,7.5-1,11.5-1.6c-0.3-0.3-0.6-0.5-0.8-0.7c-0.7-0.5-1.1-1.2-1.2-2c0-0.4-0.1-0.9-0.2-1.3
	c0-0.9-0.5-1.5-1.2-2c-0.7-0.4-1.3-0.8-1.9-1.3c-1.3-1-2-2.4-2.1-4c0-0.2,0-0.5,0-0.7c-0.1-1.3-0.7-2.2-1.9-2.6
	c-0.6-0.2-1.3-0.4-2-0.5c-0.2,0-0.4,0-0.5,0.1C32.7,8,31.3,8.9,30,9.9 M54.3,26c-0.2,0-0.3,0-0.4,0c-1.2,0.1-2.3,0.2-3.5,0.3
	c-1.4,0.1-2.8,0.1-4.2,0.3c-1.4,0.1-2.9,0.3-4.3,0.4c-2.5,0.3-5,0.5-7.6,0.8c-2.5,0.2-4.9,0.5-7.4,0.7c-2.2,0.2-4.4,0.4-6.6,0.7
	c-2,0.2-4,0.4-6,0.7c-2.1,0.2-4.1,0.5-6.2,0.7c-2.1,0.2-4.2,0.4-6.3,0.5c-0.1,0-0.3,0-0.4,0.1c0,1.9-0.4,3.8-0.3,5.8
	c10.5-1.2,20.9-2.3,31.2-3.4c0.1-0.2,0.2-0.3,0.4-0.7c0,0.7,0.4,0.6,0.7,0.6c0.6,0,1.2-0.1,1.8-0.1c2.2-0.2,4.5-0.4,6.7-0.7
	c1.8-0.2,3.6-0.4,5.4-0.7c2-0.3,4-0.5,6.1-0.8C53.8,29.3,54,27.7,54.3,26 M0.6,33.3c0-1.3-0.1-2.6-0.1-3.9c0-0.2,0-0.4,0-0.7
	c0-0.7,0.3-1.1,0.8-1.5c5.2-3.7,10.5-7.1,15.9-10.4c5.8-3.6,11.5-7.3,17-11.1c1.1-0.8,2.2-1.4,3.3-2.1c0.4-0.2,0.5-0.5,0.5-0.9
	c-0.1-1.7,1.3-2.9,3.1-2.6c0.9,0.1,1.8,0.4,2.6,1.1c0.4,0.4,0.9,0.6,1.5,0.8c0.8,0.3,1.7,0.5,2.6,0.7c1,0.2,1.8,0.7,2.2,1.8
	c0.2,0.6,0.7,1,1.2,1.4c1.3,1,2.9,1.6,4.4,2.2c0.1,0,0.2,0.1,0.3,0.1c0.7-0.1,0.9,0.3,1.1,0.8c0.3,0.8,0.4,1.6,0.2,2.4
	c-0.6,1.8-0.1,3.4,1.1,4.9c0.4,0.5,0.8,1,1.2,1.6c0.3,0.4,0.5,0.9,0.7,1.4c0.2,0.5,0.1,1-0.4,1.3c-0.8,0.6-1.2,1.3-1.3,2.3
	c-0.3,1.8-0.6,3.6-1,5.3c-0.1,0.5-0.3,1-0.4,1.5c-0.4,1.4-1.5,2.1-2.7,2.5c-0.3,0.1-0.8,0.2-1.1-0.1c-0.1-0.1-0.3-0.1-0.5-0.1
	c-2.4,0.3-4.7,0.7-7.1,1c-2.3,0.3-4.5,0.5-6.8,0.8c-1.3,0.1-2.6,0.2-3.9,0.4c-2.5,0.2-5,0.5-7.4,0.7c-2,0.2-4.1,0.4-6.1,0.6
	c-2,0.2-4,0.4-6,0.7c-2,0.2-3.9,0.4-5.9,0.6c-1.8,0.2-3.6,0.4-5.4,0.5c-0.9,0.1-1.8,0.1-2.6,0.1c-0.6,0-0.7-0.1-0.8-0.7
	c-0.1-0.5-0.1-0.9-0.1-1.4C0.4,34.7,0.5,34,0.6,33.3C0.5,33.3,0.5,33.3,0.6,33.3"/>
<path class="st0" d="M18,17.6c0.5,1,0.1,1.9-0.3,2.8c-0.2,0.5-0.5,1-0.6,1.5c-0.3,1.3-0.3,2.6,0.8,3.7c0.5-0.1,1-0.1,1.5-0.2
	c-0.2-0.7-0.5-1.2-0.6-1.8c-0.2-0.8-0.1-1.6,0.2-2.4c0.3-0.8,0.6-1.7,0.9-2.6c0.2-0.7,0.2-1.4-0.2-2C19.1,16.9,18.6,17.2,18,17.6z
	 M35.4,6.3c0.5,0.1,1,0.3,1.5,0.4c1.4,0.4,2.2,1.4,2.5,2.8c0.1,0.4,0.1,0.7,0.1,1.1c0,1.6,0.7,2.9,2,3.7c0.6,0.4,1.2,0.8,1.8,1.2
	c0.8,0.6,1.4,1.4,1.4,2.4c0,0.3,0.1,0.6,0.1,0.9c0,1,0.5,1.7,1.3,2.2c0.4,0.3,0.8,0.6,1.3,0.9c0.4-0.1,0.9-0.1,1.5-0.2
	c-0.1-0.1-0.1-0.2-0.2-0.2c-1.1-0.6-1.6-1.4-1.3-2.7c0.1-0.5-0.1-1-0.5-1.3c-0.2-0.2-0.4-0.5-0.7-0.7c-0.6-0.5-1.3-1-2-1.5
	c-1.4-1.1-2.5-2.5-3-4.2c-0.3-0.9-0.5-1.9-0.7-2.8c-0.2-0.9-0.7-1.5-1.6-1.9c-0.7-0.3-1.5-0.4-2.3-0.7C36.3,5.6,35.8,5.8,35.4,6.3z
	 M2.7,27.5c4.7-0.6,9.4-1.3,14.1-1.9c-0.8-1.9-0.8-3.3,0-5.2c0.2-0.4,0.3-0.8,0.5-1.1c0.2-0.4,0.2-0.7,0-1.2
	C12.3,21.1,7.4,24.1,2.7,27.5z M54.3,31.2c0.8-0.5,1.4-0.9,1.6-1.7c0.2-0.8,0.4-1.6,0.6-2.3c0.4-1.6,0.7-3.3,1.1-4.9
	c0.2-0.8,0.6-1.4,1.2-1.9c0.6-0.5,0.6-0.9,0-1.5c-0.4-0.4-0.7-0.7-1.1-1.1c-1.6-1.8-2.4-3.8-1.7-6.3c0.2-0.5,0.1-1.1,0-1.7
	c-0.1-0.6-0.4-0.9-1-1c-1.2-0.3-2.4-0.7-3.5-1.2c-1.1-0.5-2.1-1.1-2.6-2.3c-0.3-0.8-0.9-1.2-1.7-1.4c-1-0.3-2-0.6-3.1-1
	c-0.5-0.2-1-0.5-1.3-1c-0.3-0.7-0.9-0.8-1.6-0.8c-0.4,0-0.7,0-1.1,0.1C39.2,1.4,38.8,2,38.9,3c1.8,0.7,3.6,1.4,5.4,2.1
	c1.1,0.4,2,1.1,2.9,1.8c2.6,2.3,4.8,5,6.6,7.9c1,1.6,1.6,3.4,1.9,5.3c0.1,0.5,0,1.1,0,1.6c0,0.4-0.2,0.8-0.2,1.3
	c-0.1,2-0.2,4-0.6,5.9C54.7,29.6,54.5,30.3,54.3,31.2z M54.6,21.1c-0.2-2-0.8-3.8-1.8-5.5c-1.7-2.9-3.8-5.5-6.4-7.7
	c-0.7-0.6-1.5-1.1-2.3-1.5c-1.6-0.7-3.2-1.3-4.8-2c-0.7-0.3-1.2-0.1-1.7,0.4C37.7,4.9,37.9,4.9,38,5c0.6,0.2,1.2,0.4,1.7,0.6
	c1,0.5,1.7,1.2,1.9,2.3c0.1,0.6,0.3,1.1,0.4,1.7c0.4,2.2,1.6,4,3.5,5.3c0.6,0.4,1.1,0.8,1.6,1.2c1,0.8,1.7,1.8,1.4,3.2
	c-0.1,0.5,0.1,0.8,0.5,1c0.5,0.3,1,0.6,1.5,0.8c0.2,0.1,0.5,0.2,0.7,0.2C52.4,21.3,53.5,21.2,54.6,21.1z M54.6,22.1
	c-0.2,0-0.3,0-0.3,0c-2.5,0.3-5,0.7-7.5,1c-3.5,0.5-6.9,0.9-10.4,1.4c-4,0.5-7.9,1-11.9,1.4c-4,0.4-7.9,0.8-11.9,1.2
	c-3.2,0.4-6.3,0.8-9.4,1.2c-0.6,0.1-1.1,0.1-1.7,0.2c0,0.6-0.1,1.1,0.2,1.7c0.7-0.1,1.4-0.1,2.1-0.2c2.8-0.3,5.6-0.6,8.4-1
	c3.6-0.4,7.3-0.8,10.9-1.2c3.8-0.4,7.6-0.8,11.4-1.1c2.5-0.3,4.9-0.5,7.4-0.8c2.9-0.3,5.7-0.6,8.6-0.7c1.3,0,2.6-0.2,4-0.3
	C54.4,23.9,54.5,23.1,54.6,22.1z M33.2,23.9c-0.2-0.3-0.4-0.5-0.6-0.6c-0.9-0.9-1-1.9-0.5-3c0.2-0.4,0.4-0.8,0.5-1.1
	c0.1-0.5,0.3-0.9,0.3-1.4c0-1-0.2-1.3-1.1-1.7c-0.8-0.4-1.7-0.8-2.5-1.2c-1-0.5-1.6-1.4-2.1-2.5c-0.1-0.1-0.1-0.3-0.2-0.4
	c-2.2,1.4-4.4,2.8-6.5,4.1c0.6,1.5,0.6,1.8,0.2,3c-0.2,0.7-0.4,1.3-0.7,2c-0.6,1.5-0.6,2.9,0.5,4.3C24.6,24.9,28.9,24.5,33.2,23.9z
	 M30,9.9c0.1,0.3,0.2,0.5,0.3,0.8c0.4,0.9,1,1.6,2,1.9c0.7,0.2,1.4,0.4,2.1,0.7c0.4,0.1,0.7,0.3,1,0.6c1.2,1,1.9,3.1,1.2,4.7
	c-0.2,0.6-0.4,1.2-0.7,1.8c-0.2,0.4-0.2,0.8,0.1,1.1c0.3,0.4,0.6,0.8,0.9,1.2c0.1,0.2,0.3,0.3,0.2,0.6c-0.2,0.3-0.4,0.2-0.7,0.1
	c-0.2-0.1-0.3-0.2-0.5-0.4c-0.3-0.3-0.5-0.7-0.8-1.1c-0.4-0.6-0.5-1.3-0.2-2c0.3-0.6,0.5-1.2,0.7-1.8c0.5-1.2-0.5-3.5-1.9-3.8
	c-0.7-0.1-1.3-0.4-1.9-0.6c-1.3-0.4-2-1.2-2.5-2.4c-0.1-0.2-0.2-0.4-0.3-0.6c-0.5,0.3-0.9,0.6-1.3,0.9c0.4,1.2,1.1,2.1,2.3,2.7
	c0.8,0.4,1.5,0.7,2.3,1.1c1,0.4,1.6,1.2,1.7,2.3c0,0.7,0,1.4-0.3,2c-0.2,0.4-0.3,0.8-0.5,1.2c-0.3,0.7-0.2,1.4,0.3,2
	c0.3,0.3,0.5,0.7,0.9,1.1c3.7-0.5,7.5-1,11.5-1.6c-0.3-0.3-0.6-0.5-0.8-0.7c-0.7-0.5-1.1-1.2-1.2-2c0-0.4-0.1-0.9-0.2-1.3
	c0-0.9-0.5-1.5-1.2-2c-0.7-0.4-1.3-0.8-1.9-1.3c-1.3-1-2-2.4-2.1-4c0-0.2,0-0.5,0-0.7c-0.1-1.3-0.7-2.2-1.9-2.6
	c-0.6-0.2-1.3-0.4-2-0.5c-0.2,0-0.4,0-0.5,0.1C32.7,8,31.3,8.9,30,9.9z M54.3,26c-0.2,0-0.3,0-0.4,0c-1.2,0.1-2.3,0.2-3.5,0.3
	c-1.4,0.1-2.8,0.1-4.2,0.3c-1.4,0.1-2.9,0.3-4.3,0.4c-2.5,0.3-5,0.5-7.6,0.8c-2.5,0.2-4.9,0.5-7.4,0.7c-2.2,0.2-4.4,0.4-6.6,0.7
	c-2,0.2-4,0.4-6,0.7c-2.1,0.2-4.1,0.5-6.2,0.7c-2.1,0.2-4.2,0.4-6.3,0.5c-0.1,0-0.3,0-0.4,0.1c0,1.9-0.4,3.8-0.3,5.8
	c10.5-1.2,20.9-2.3,31.2-3.4c0.1-0.2,0.2-0.3,0.4-0.7c0,0.7,0.4,0.6,0.7,0.6c0.6,0,1.2-0.1,1.8-0.1c2.2-0.2,4.5-0.4,6.7-0.7
	c1.8-0.2,3.6-0.4,5.4-0.7c2-0.3,4-0.5,6.1-0.8C53.8,29.3,54,27.7,54.3,26z M0.6,33.3c0-1.3-0.1-2.6-0.1-3.9c0-0.2,0-0.4,0-0.7
	c0-0.7,0.3-1.1,0.8-1.5c5.2-3.7,10.5-7.1,15.9-10.4c5.8-3.6,11.5-7.3,17-11.1c1.1-0.8,2.2-1.4,3.3-2.1c0.4-0.2,0.5-0.5,0.5-0.9
	c-0.1-1.7,1.3-2.9,3.1-2.6c0.9,0.1,1.8,0.4,2.6,1.1c0.4,0.4,0.9,0.6,1.5,0.8c0.8,0.3,1.7,0.5,2.6,0.7c1,0.2,1.8,0.7,2.2,1.8
	c0.2,0.6,0.7,1,1.2,1.4c1.3,1,2.9,1.6,4.4,2.2c0.1,0,0.2,0.1,0.3,0.1c0.7-0.1,0.9,0.3,1.1,0.8c0.3,0.8,0.4,1.6,0.2,2.4
	c-0.6,1.8-0.1,3.4,1.1,4.9c0.4,0.5,0.8,1,1.2,1.6c0.3,0.4,0.5,0.9,0.7,1.4c0.2,0.5,0.1,1-0.4,1.3c-0.8,0.6-1.2,1.3-1.3,2.3
	c-0.3,1.8-0.6,3.6-1,5.3c-0.1,0.5-0.3,1-0.4,1.5c-0.4,1.4-1.5,2.1-2.7,2.5c-0.3,0.1-0.8,0.2-1.1-0.1c-0.1-0.1-0.3-0.1-0.5-0.1
	c-2.4,0.3-4.7,0.7-7.1,1c-2.3,0.3-4.5,0.5-6.8,0.8c-1.3,0.1-2.6,0.2-3.9,0.4c-2.5,0.2-5,0.5-7.4,0.7c-2,0.2-4.1,0.4-6.1,0.6
	c-2,0.2-4,0.4-6,0.7c-2,0.2-3.9,0.4-5.9,0.6c-1.8,0.2-3.6,0.4-5.4,0.5c-0.9,0.1-1.8,0.1-2.6,0.1c-0.6,0-0.7-0.1-0.8-0.7
	c-0.1-0.5-0.1-0.9-0.1-1.4C0.4,34.7,0.5,34,0.6,33.3C0.5,33.3,0.5,33.3,0.6,33.3z"/>
<path class="st0" d="M30.3,30.5c0.1,0.1,0.2,0.2,0.3,0.2c0.1,0,0.2-0.1,0.2-0.2c0-0.1-0.1-0.2-0.2-0.2
	C30.5,30.3,30.4,30.4,30.3,30.5z M4.6,33.6c-0.1,0.1-0.2,0.2-0.2,0.2c0.1,0.1,0.2,0.2,0.3,0.3c0,0,0.2-0.1,0.2-0.2
	C4.9,33.8,4.8,33.7,4.6,33.6z M14.6,31.5c0-0.1,0.1-0.2,0.1-0.3c-0.1-0.1-0.1-0.3-0.2-0.4c0,0-0.2,0-0.2,0.1c0,0.2,0,0.3,0.1,0.5
	C14.4,31.4,14.5,31.4,14.6,31.5z M25,30.9c0.1-0.2,0.2-0.3,0.2-0.4c0-0.1-0.2-0.2-0.3-0.2c-0.1,0-0.2,0.2-0.2,0.3
	C24.7,30.6,24.9,30.7,25,30.9z M45.3,29.8c-0.2-0.1-0.3-0.2-0.4-0.2c-0.1,0-0.2,0.2-0.3,0.3c0.1,0.1,0.2,0.2,0.3,0.2
	C45,30,45.1,29.9,45.3,29.8z M3.2,32.7c-0.1,0.2-0.3,0.4-0.3,0.4c0.1,0.1,0.2,0.3,0.4,0.4c0.1-0.1,0.2-0.2,0.2-0.3
	C3.5,33.1,3.4,33,3.2,32.7z M7.3,31.3C7.1,31.5,7,31.6,7,31.7C7,31.8,7.1,32,7.3,32c0.1,0,0.3-0.2,0.3-0.2
	C7.6,31.7,7.4,31.5,7.3,31.3z M47.4,30.6c-0.2-0.2-0.4-0.3-0.5-0.4c-0.1,0-0.2,0.2-0.3,0.3c0.1,0.1,0.2,0.3,0.3,0.3
	C47,30.9,47.1,30.7,47.4,30.6z M40.1,30.1c-0.2,0.2-0.3,0.3-0.4,0.4c-0.1,0.2,0.1,0.4,0.3,0.3c0.1,0,0.3-0.2,0.3-0.3
	C40.4,30.4,40.2,30.3,40.1,30.1z M13.2,33.8c-0.2-0.5-0.4-0.6-0.7-0.6c-0.1,0-0.2,0.1-0.2,0.2c0,0.1,0.1,0.3,0.1,0.3
	C12.6,33.8,12.8,33.8,13.2,33.8z M8.4,34.6c-0.5-0.5-0.5-0.5-1-0.3C7.8,34.8,7.8,34.8,8.4,34.6z M5.4,34.3c0.3,0.1,0.4,0.2,0.5,0.2
	c0.2,0,0.4-0.1,0.4-0.4c0-0.1-0.2-0.3-0.3-0.2C5.8,34,5.7,34.1,5.4,34.3z M35.2,30.8c0.3,0.2,0.4,0.3,0.6,0.4c0.2,0,0.4-0.1,0.4-0.3
	c0-0.1-0.2-0.3-0.4-0.4C35.7,30.5,35.5,30.7,35.2,30.8z M31.6,28.6c-0.2,0.2-0.3,0.4-0.4,0.6c0,0,0.2,0.2,0.3,0.3
	c0.2,0,0.5,0,0.5-0.3C31.9,29,31.8,28.9,31.6,28.6z M11.6,32.1c-0.2-0.2-0.4-0.4-0.6-0.4c-0.1,0-0.3,0.2-0.3,0.4
	c0,0.2,0.2,0.4,0.4,0.4C11.2,32.4,11.3,32.2,11.6,32.1z M17.1,31.1c-0.2,0.2-0.3,0.3-0.3,0.4C16.7,31.7,17,32,17.2,32
	c0.1,0,0.3-0.2,0.2-0.3C17.4,31.5,17.2,31.3,17.1,31.1z M25.6,33.9c0.2-0.2,0.3-0.3,0.3-0.5c0-0.3-0.2-0.4-0.5-0.4
	c-0.1,0-0.3,0.3-0.3,0.3C25.2,33.5,25.4,33.7,25.6,33.9z M50.7,28.7c0.2-0.4,0.2-0.7-0.2-0.9c-0.3-0.1-0.6,0-0.6,0.4
	C50.1,28.4,50.4,28.5,50.7,28.7z M19,33.2c-0.5-0.1-0.8,0.1-0.7,0.4c0,0.1,0.2,0.3,0.3,0.4C18.9,34,19,33.8,19,33.2z M22.5,31.9
	c0-0.1,0-0.1,0.1-0.2c-0.2-0.1-0.4-0.3-0.6-0.3c-0.2-0.1-0.4,0-0.5,0.3c0,0.3,0.1,0.4,0.4,0.4C22.1,32,22.3,31.9,22.5,31.9z
	 M33.3,31c-0.4-0.3-0.9-0.1-1,0.2c-0.1,0.2,0.1,0.4,0.3,0.4C32.9,31.6,33.1,31.4,33.3,31z M38.6,31.4c-0.3,0-0.7,0-1,0
	c-0.1,0-0.2,0.2-0.2,0.3c0,0.1,0.2,0.3,0.2,0.3C37.9,31.9,38.3,31.9,38.6,31.4z M40.1,28.8c-0.3-0.3-0.4-0.5-0.7-0.6
	c-0.1-0.1-0.3,0-0.4,0.1c-0.1,0,0,0.3,0,0.4C39.3,28.9,39.6,29.1,40.1,28.8z M27.3,31.8c0-0.1,0.2-0.2,0.2-0.3
	c0-0.3-0.3-0.7-0.5-0.7c-0.2,0-0.3,0.2-0.3,0.4C26.7,31.5,27,31.8,27.3,31.8z M44.5,28.6c0-0.1,0-0.2,0.1-0.2
	c-0.2-0.2-0.4-0.3-0.7-0.5c-0.2-0.1-0.4,0-0.5,0.2c-0.1,0.2,0,0.5,0.3,0.5C43.9,28.7,44.2,28.6,44.5,28.6z M33.2,30.3
	c0.4,0,0.7,0,0.9,0c0.1,0,0.3-0.1,0.3-0.2c0-0.1-0.1-0.3-0.2-0.4c-0.3-0.1-0.6-0.2-0.9-0.1C33.1,29.7,33,30,33.2,30.3z M20.2,31.3
	c-0.2-0.6-0.6-1-1.1-1c-0.2,0-0.4,0.1-0.4,0.3c0,0.1,0.1,0.4,0.2,0.5C19.3,31.2,19.7,31.4,20.2,31.3z M52.2,30.1
	c-0.2-0.4-0.4-0.8-0.5-1.1c-0.1-0.2-0.3-0.3-0.5-0.2c-0.3,0.2-0.3,0.4-0.2,0.7C51.1,30,51.5,30.2,52.2,30.1z M54.3,26
	c-0.3,1.7-0.5,3.4-0.8,5c-2.1,0.3-4.1,0.5-6.1,0.8c-1.8,0.2-3.6,0.5-5.4,0.7c-2.2,0.2-4.5,0.5-6.7,0.7c-0.6,0.1-1.2,0.1-1.8,0.1
	c-0.3,0-0.7,0.2-0.7-0.6c-0.2,0.4-0.3,0.5-0.4,0.7c-10.4,1.1-20.8,2.3-31.2,3.4c-0.1-2,0.3-3.9,0.3-5.8c0.2,0,0.3-0.1,0.4-0.1
	c2.1-0.2,4.2-0.3,6.3-0.5c2.1-0.2,4.1-0.4,6.2-0.7c2-0.2,4-0.5,6-0.7c2.2-0.2,4.4-0.4,6.6-0.7c2.5-0.2,4.9-0.4,7.4-0.7
	c2.5-0.3,5-0.5,7.6-0.8c1.4-0.1,2.9-0.3,4.3-0.4c1.4-0.1,2.8-0.2,4.2-0.3c1.2-0.1,2.3-0.2,3.5-0.3C54,26,54.1,26,54.3,26z"/>
<path class="st0" d="M30,9.9c1.4-0.9,2.7-1.9,4-2.8C34.1,7,34.4,7,34.5,7c0.7,0.1,1.3,0.3,2,0.5c1.2,0.4,1.8,1.3,1.9,2.6
	c0,0.2,0,0.5,0,0.7c0,1.7,0.7,3,2.1,4c0.6,0.5,1.3,0.9,1.9,1.3c0.7,0.5,1.2,1.1,1.2,2c0,0.4,0.1,0.9,0.2,1.3c0.1,0.9,0.5,1.5,1.2,2
	c0.2,0.2,0.5,0.4,0.8,0.7c-3.9,0.5-7.8,1.1-11.5,1.6c-0.3-0.4-0.6-0.8-0.9-1.1c-0.6-0.6-0.6-1.2-0.3-2c0.2-0.4,0.4-0.8,0.5-1.2
	c0.3-0.6,0.3-1.3,0.3-2c-0.1-1.1-0.6-1.9-1.7-2.3c-0.8-0.3-1.6-0.7-2.3-1.1c-1.1-0.5-1.8-1.4-2.3-2.7c0.4-0.3,0.8-0.6,1.3-0.9
	c0.1,0.2,0.2,0.4,0.3,0.6c0.5,1.1,1.3,2,2.5,2.4c0.7,0.2,1.3,0.5,1.9,0.6c1.4,0.3,2.4,2.6,1.9,3.8c-0.2,0.6-0.4,1.2-0.7,1.8
	c-0.3,0.7-0.2,1.4,0.2,2c0.2,0.4,0.5,0.7,0.8,1.1c0.1,0.1,0.3,0.3,0.5,0.4c0.2,0.1,0.5,0.2,0.7-0.1c0.2-0.2,0-0.4-0.2-0.6
	c-0.3-0.4-0.6-0.8-0.9-1.2c-0.2-0.3-0.2-0.7-0.1-1.1c0.2-0.6,0.5-1.2,0.7-1.8c0.7-1.6-0.1-3.7-1.2-4.7c-0.3-0.2-0.7-0.4-1-0.6
	c-0.7-0.3-1.4-0.5-2.1-0.7c-1-0.3-1.6-1-2-1.9C30.2,10.4,30.1,10.2,30,9.9z"/>
<path class="st0" d="M33.2,23.9c-4.3,0.6-8.6,1-12.8,1.4c-1-1.4-1.1-2.8-0.5-4.3c0.3-0.7,0.5-1.3,0.7-2c0.4-1.1,0.3-1.4-0.2-3
	c2.1-1.4,4.3-2.7,6.5-4.1c0.1,0.2,0.2,0.3,0.2,0.4c0.5,1,1.1,1.9,2.1,2.5c0.8,0.4,1.6,0.9,2.5,1.2c0.9,0.4,1.2,0.7,1.1,1.7
	c0,0.5-0.1,1-0.3,1.4c-0.1,0.4-0.3,0.8-0.5,1.1c-0.5,1.1-0.3,2.1,0.5,3C32.8,23.5,33,23.6,33.2,23.9z"/>
<path class="st0" d="M54.6,22.1c-0.1,0.9-0.2,1.8-0.3,2.8c-1.4,0.1-2.7,0.3-4,0.3c-2.9,0.1-5.7,0.4-8.6,0.7
	c-2.5,0.3-4.9,0.5-7.4,0.8c-3.8,0.4-7.6,0.7-11.4,1.1c-3.6,0.4-7.3,0.8-10.9,1.2c-2.8,0.3-5.6,0.7-8.4,1c-0.7,0.1-1.4,0.1-2.1,0.2
	c-0.2-0.5-0.2-1.1-0.2-1.7c0.6-0.1,1.2-0.1,1.7-0.2c3.1-0.4,6.3-0.9,9.4-1.2c4-0.4,7.9-0.8,11.9-1.2c4-0.4,8-0.9,11.9-1.4
	c3.5-0.4,6.9-0.9,10.4-1.4c2.5-0.3,5-0.7,7.5-1C54.3,22.1,54.4,22.1,54.6,22.1z"/>
<path class="st0" d="M54.6,21.1c-1.1,0.1-2.2,0.3-3.3,0.4c-0.2,0-0.5-0.1-0.7-0.2c-0.5-0.3-1-0.6-1.5-0.8c-0.4-0.2-0.6-0.6-0.5-1
	c0.3-1.4-0.3-2.4-1.4-3.2c-0.5-0.4-1.1-0.9-1.6-1.2c-1.9-1.3-3.1-3-3.5-5.3c-0.1-0.6-0.3-1.1-0.4-1.7c-0.2-1.1-0.9-1.9-1.9-2.3
	C39.2,5.3,38.6,5.2,38,5c-0.1,0-0.3-0.1-0.4-0.1c0.5-0.6,1-0.7,1.7-0.4c1.6,0.7,3.2,1.3,4.8,2c0.8,0.4,1.6,0.9,2.3,1.5
	c2.5,2.2,4.6,4.8,6.4,7.7C53.8,17.2,54.3,19.1,54.6,21.1z"/>
<path class="st0" d="M54.3,31.2c0.2-0.9,0.4-1.6,0.5-2.3c0.4-1.9,0.5-3.9,0.6-5.9c0-0.4,0.2-0.8,0.2-1.3c0-0.5,0.1-1.1,0-1.6
	c-0.3-1.9-0.9-3.6-1.9-5.3c-1.8-3-4-5.6-6.6-7.9c-0.9-0.8-1.8-1.4-2.9-1.8c-1.8-0.7-3.6-1.4-5.4-2.1c-0.1-1,0.3-1.6,1.3-1.8
	c0.4-0.1,0.7,0,1.1-0.1c0.7-0.1,1.2,0.1,1.6,0.8c0.3,0.5,0.7,0.8,1.3,1c1,0.3,2,0.7,3.1,1c0.8,0.2,1.4,0.6,1.7,1.4
	c0.5,1.2,1.5,1.8,2.6,2.3c1.1,0.5,2.3,0.8,3.5,1.2c0.6,0.2,0.9,0.4,1,1c0.1,0.6,0.1,1.1,0,1.7c-0.7,2.4,0.1,4.5,1.7,6.3
	c0.3,0.4,0.7,0.7,1.1,1.1c0.5,0.6,0.5,0.9,0,1.5c-0.6,0.5-1.1,1.2-1.2,1.9c-0.4,1.6-0.7,3.3-1.1,4.9c-0.2,0.8-0.4,1.6-0.6,2.3
	C55.7,30.3,55.1,30.7,54.3,31.2z"/>
<path class="st0" d="M2.7,27.5c4.7-3.4,9.6-6.4,14.6-9.5c0.1,0.5,0.1,0.8,0,1.2c-0.2,0.4-0.3,0.8-0.5,1.1c-0.8,1.9-0.8,3.3,0,5.2
	C12,26.2,7.3,26.9,2.7,27.5z"/>
<path class="st0" d="M35.4,6.3c0.4-0.5,0.9-0.7,1.4-0.5c0.8,0.2,1.6,0.4,2.3,0.7c0.8,0.3,1.4,0.9,1.6,1.9c0.2,1,0.5,1.9,0.7,2.8
	c0.5,1.8,1.6,3.1,3,4.2c0.6,0.5,1.3,1,2,1.5c0.2,0.2,0.5,0.4,0.7,0.7c0.4,0.4,0.6,0.8,0.5,1.3c-0.3,1.2,0.2,2.1,1.3,2.7
	c0.1,0,0.1,0.1,0.2,0.2c-0.6,0.1-1.1,0.2-1.5,0.2c-0.5-0.3-0.9-0.7-1.3-0.9c-0.8-0.5-1.3-1.2-1.3-2.2c0-0.3-0.1-0.6-0.1-0.9
	c0-1.1-0.6-1.8-1.4-2.4c-0.6-0.4-1.2-0.8-1.8-1.2c-1.3-0.9-2-2.1-2-3.8c0-0.4,0-0.7-0.1-1.1c-0.3-1.4-1.1-2.4-2.5-2.8
	C36.4,6.5,35.9,6.4,35.4,6.3z"/>
<path class="st0" d="M18,17.6c0.6-0.4,1.1-0.7,1.6-1c0.5,0.7,0.4,1.3,0.2,2c-0.3,0.9-0.6,1.7-0.9,2.6c-0.3,0.8-0.4,1.6-0.2,2.4
	c0.1,0.6,0.4,1.2,0.6,1.8c-0.5,0.1-1,0.1-1.5,0.2c-1-1.1-1-2.4-0.8-3.7c0.1-0.5,0.3-1,0.6-1.5C18.1,19.5,18.5,18.6,18,17.6z"/>
<path d="M52.2,30.1c-0.7,0.1-1.1-0.1-1.3-0.6c-0.1-0.3,0-0.5,0.2-0.7c0.2-0.1,0.4-0.1,0.5,0.2C51.8,29.3,52,29.7,52.2,30.1"/>
<path class="st0" d="M52.2,30.1c-0.7,0.1-1.1-0.1-1.3-0.6c-0.1-0.3,0-0.5,0.2-0.7c0.2-0.1,0.4-0.1,0.5,0.2
	C51.8,29.3,52,29.7,52.2,30.1z"/>
<path d="M20.2,31.3c-0.5,0.2-0.9-0.1-1.4-0.3c-0.1,0-0.2-0.3-0.2-0.5c0.1-0.1,0.3-0.3,0.5-0.3C19.6,30.3,20.1,30.7,20.2,31.3"/>
<path class="st0" d="M20.2,31.3c-0.5,0.2-0.9-0.1-1.4-0.3c-0.1,0-0.2-0.3-0.2-0.5c0.1-0.1,0.3-0.3,0.5-0.3
	C19.6,30.3,20.1,30.7,20.2,31.3z"/>
<path d="M33.2,30.3c-0.2-0.3-0.1-0.6,0.2-0.7c0.3-0.1,0.6,0,0.9,0.1c0.1,0,0.2,0.3,0.2,0.3c0,0.1-0.2,0.2-0.3,0.2
	C33.9,30.3,33.6,30.3,33.2,30.3"/>
<path class="st0" d="M33.2,30.3c-0.2-0.3-0.1-0.6,0.2-0.7c0.3-0.1,0.6,0,0.9,0.1c0.1,0,0.2,0.3,0.2,0.3c0,0.1-0.2,0.2-0.3,0.2
	C33.9,30.3,33.6,30.3,33.2,30.3z"/>
<path d="M44.5,28.6c-0.3,0-0.6,0.1-0.8,0.1c-0.3,0-0.4-0.3-0.3-0.5c0.1-0.2,0.3-0.3,0.5-0.2c0.2,0.1,0.4,0.3,0.7,0.5
	C44.5,28.4,44.5,28.5,44.5,28.6"/>
<path class="st0" d="M44.5,28.6c-0.3,0-0.6,0.1-0.8,0.1c-0.3,0-0.4-0.3-0.3-0.5c0.1-0.2,0.3-0.3,0.5-0.2c0.2,0.1,0.4,0.3,0.7,0.5
	C44.5,28.4,44.5,28.5,44.5,28.6z"/>
<path d="M27.3,31.8c-0.4,0-0.6-0.3-0.6-0.6c0-0.2,0-0.4,0.3-0.4c0.3,0,0.6,0.3,0.5,0.7C27.5,31.6,27.4,31.7,27.3,31.8"/>
<path class="st0" d="M27.3,31.8c-0.4,0-0.6-0.3-0.6-0.6c0-0.2,0-0.4,0.3-0.4c0.3,0,0.6,0.3,0.5,0.7C27.5,31.6,27.4,31.7,27.3,31.8z"
	/>
<path d="M40.1,28.8c-0.5,0.3-0.8,0.1-1-0.2c-0.1-0.1-0.1-0.3,0-0.4c0.1-0.1,0.3-0.2,0.4-0.1C39.7,28.3,39.9,28.6,40.1,28.8"/>
<path class="st0" d="M40.1,28.8c-0.5,0.3-0.8,0.1-1-0.2c-0.1-0.1-0.1-0.3,0-0.4c0.1-0.1,0.3-0.2,0.4-0.1
	C39.7,28.3,39.9,28.6,40.1,28.8z"/>
<path d="M38.6,31.4c-0.2,0.5-0.6,0.6-1,0.6c-0.1,0-0.2-0.2-0.2-0.3c0-0.1,0.1-0.3,0.2-0.3C37.9,31.3,38.2,31.4,38.6,31.4"/>
<path class="st0" d="M38.6,31.4c-0.2,0.5-0.6,0.6-1,0.6c-0.1,0-0.2-0.2-0.2-0.3c0-0.1,0.1-0.3,0.2-0.3
	C37.9,31.3,38.2,31.4,38.6,31.4z"/>
<path d="M33.3,31c-0.2,0.4-0.4,0.6-0.7,0.6c-0.2,0-0.4-0.2-0.3-0.4C32.4,30.9,32.9,30.8,33.3,31"/>
<path class="st0" d="M33.3,31c-0.2,0.4-0.4,0.6-0.7,0.6c-0.2,0-0.4-0.2-0.3-0.4C32.4,30.9,32.9,30.8,33.3,31z"/>
<path d="M22.5,31.9c-0.2,0-0.4,0.1-0.6,0.1c-0.2,0-0.4-0.1-0.4-0.4c0-0.2,0.2-0.4,0.5-0.3c0.2,0.1,0.4,0.2,0.6,0.4
	C22.5,31.7,22.5,31.8,22.5,31.9"/>
<path class="st0" d="M22.5,31.9c-0.2,0-0.4,0.1-0.6,0.1c-0.2,0-0.4-0.1-0.4-0.4c0-0.2,0.2-0.4,0.5-0.3c0.2,0.1,0.4,0.2,0.6,0.4
	C22.5,31.7,22.5,31.8,22.5,31.9z"/>
<path d="M19,33.2c0,0.6-0.1,0.8-0.4,0.7c-0.1,0-0.3-0.2-0.3-0.4C18.2,33.3,18.5,33.2,19,33.2"/>
<path class="st0" d="M19,33.2c0,0.6-0.1,0.8-0.4,0.7c-0.1,0-0.3-0.2-0.3-0.4C18.2,33.3,18.5,33.2,19,33.2z"/>
<path d="M50.7,28.7c-0.3-0.2-0.6-0.3-0.8-0.5c0.1-0.4,0.4-0.5,0.6-0.4C50.9,28,50.9,28.3,50.7,28.7"/>
<path class="st0" d="M50.7,28.7c-0.3-0.2-0.6-0.3-0.8-0.5c0.1-0.4,0.4-0.5,0.6-0.4C50.9,28,50.9,28.3,50.7,28.7z"/>
<path d="M25.6,33.9c-0.2-0.2-0.4-0.4-0.5-0.6c0,0,0.2-0.3,0.3-0.3c0.3,0,0.5,0.1,0.5,0.4C25.9,33.6,25.8,33.7,25.6,33.9"/>
<path class="st0" d="M25.6,33.9c-0.2-0.2-0.4-0.4-0.5-0.6c0,0,0.2-0.3,0.3-0.3c0.3,0,0.5,0.1,0.5,0.4C25.9,33.6,25.8,33.7,25.6,33.9
	z"/>
<path d="M17.1,31.1c0.2,0.3,0.3,0.4,0.4,0.6c0,0.1-0.1,0.3-0.2,0.3c-0.2,0.1-0.5-0.3-0.5-0.5C16.8,31.4,16.9,31.3,17.1,31.1"/>
<path class="st0" d="M17.1,31.1c0.2,0.3,0.3,0.4,0.4,0.6c0,0.1-0.1,0.3-0.2,0.3c-0.2,0.1-0.5-0.3-0.5-0.5
	C16.8,31.4,16.9,31.3,17.1,31.1z"/>
<path d="M11.6,32.1c-0.2,0.2-0.3,0.3-0.5,0.3c-0.2,0-0.5-0.1-0.4-0.4c0-0.1,0.2-0.4,0.3-0.4C11.2,31.7,11.3,31.9,11.6,32.1"/>
<path class="st0" d="M11.6,32.1c-0.2,0.2-0.3,0.3-0.5,0.3c-0.2,0-0.5-0.1-0.4-0.4c0-0.1,0.2-0.4,0.3-0.4
	C11.2,31.7,11.3,31.9,11.6,32.1z"/>
<path d="M31.6,28.6c0.2,0.3,0.3,0.4,0.3,0.6c0,0.3-0.3,0.3-0.5,0.3c-0.1,0-0.3-0.2-0.3-0.3C31.3,29,31.4,28.9,31.6,28.6"/>
<path class="st0" d="M31.6,28.6c0.2,0.3,0.3,0.4,0.3,0.6c0,0.3-0.3,0.3-0.5,0.3c-0.1,0-0.3-0.2-0.3-0.3C31.3,29,31.4,28.9,31.6,28.6
	z"/>
<path d="M35.2,30.8c0.3-0.1,0.5-0.3,0.6-0.3c0.1,0,0.3,0.2,0.4,0.4c0,0.2-0.2,0.3-0.4,0.3C35.7,31.1,35.5,31,35.2,30.8"/>
<path class="st0" d="M35.2,30.8c0.3-0.1,0.5-0.3,0.6-0.3c0.1,0,0.3,0.2,0.4,0.4c0,0.2-0.2,0.3-0.4,0.3C35.7,31.1,35.5,31,35.2,30.8z
	"/>
<path d="M5.4,34.3C5.7,34.1,5.8,34,6,33.9c0.1,0,0.3,0.1,0.3,0.2c0.1,0.3-0.2,0.4-0.4,0.4C5.8,34.6,5.7,34.5,5.4,34.3"/>
<path class="st0" d="M5.4,34.3C5.7,34.1,5.8,34,6,33.9c0.1,0,0.3,0.1,0.3,0.2c0.1,0.3-0.2,0.4-0.4,0.4C5.8,34.6,5.7,34.5,5.4,34.3z"
	/>
<path d="M8.4,34.6c-0.6,0.2-0.6,0.2-1-0.3C7.9,34.1,7.9,34.1,8.4,34.6"/>
<path class="st0" d="M8.4,34.6c-0.6,0.2-0.6,0.2-1-0.3C7.9,34.1,7.9,34.1,8.4,34.6z"/>
<path d="M13.2,33.8c-0.4,0-0.6-0.1-0.8-0.1c-0.1,0-0.2-0.2-0.1-0.3c0-0.1,0.2-0.2,0.2-0.2C12.7,33.2,13,33.4,13.2,33.8"/>
<path class="st0" d="M13.2,33.8c-0.4,0-0.6-0.1-0.8-0.1c-0.1,0-0.2-0.2-0.1-0.3c0-0.1,0.2-0.2,0.2-0.2C12.7,33.2,13,33.4,13.2,33.8z
	"/>
<path d="M40.1,30.1c0.1,0.2,0.3,0.3,0.3,0.4c0,0.1-0.2,0.3-0.3,0.3c-0.2,0-0.4-0.1-0.3-0.3C39.8,30.3,39.9,30.3,40.1,30.1"/>
<path class="st0" d="M40.1,30.1c0.1,0.2,0.3,0.3,0.3,0.4c0,0.1-0.2,0.3-0.3,0.3c-0.2,0-0.4-0.1-0.3-0.3
	C39.8,30.3,39.9,30.3,40.1,30.1z"/>
<path d="M47.4,30.6c-0.3,0.1-0.4,0.3-0.5,0.3c-0.1,0-0.2-0.2-0.3-0.3c0.1-0.1,0.2-0.3,0.3-0.3C47,30.3,47.1,30.4,47.4,30.6"/>
<path class="st0" d="M47.4,30.6c-0.3,0.1-0.4,0.3-0.5,0.3c-0.1,0-0.2-0.2-0.3-0.3c0.1-0.1,0.2-0.3,0.3-0.3
	C47,30.3,47.1,30.4,47.4,30.6z"/>
<path d="M7.3,31.3c0.2,0.2,0.3,0.4,0.3,0.5c0,0.1-0.2,0.2-0.3,0.2C7.1,32,7,31.8,7,31.7C7,31.6,7.1,31.5,7.3,31.3"/>
<path class="st0" d="M7.3,31.3c0.2,0.2,0.3,0.4,0.3,0.5c0,0.1-0.2,0.2-0.3,0.2C7.1,32,7,31.8,7,31.7C7,31.6,7.1,31.5,7.3,31.3z"/>
<path d="M3.2,32.7c0.1,0.2,0.3,0.4,0.3,0.5c0,0.1-0.1,0.2-0.2,0.3C3.2,33.4,3,33.3,3,33.1C2.9,33.1,3.1,32.9,3.2,32.7"/>
<path class="st0" d="M3.2,32.7c0.1,0.2,0.3,0.4,0.3,0.5c0,0.1-0.1,0.2-0.2,0.3C3.2,33.4,3,33.3,3,33.1C2.9,33.1,3.1,32.9,3.2,32.7z"
	/>
<path d="M45.3,29.8C45.1,29.9,45,30,44.9,30c-0.1,0-0.2-0.1-0.3-0.2c0.1-0.1,0.2-0.3,0.3-0.3C45,29.5,45.1,29.7,45.3,29.8"/>
<path class="st0" d="M45.3,29.8C45.1,29.9,45,30,44.9,30c-0.1,0-0.2-0.1-0.3-0.2c0.1-0.1,0.2-0.3,0.3-0.3
	C45,29.5,45.1,29.7,45.3,29.8z"/>
<path d="M25,30.9c-0.1-0.1-0.3-0.2-0.3-0.3c0-0.1,0.1-0.2,0.2-0.3c0.1,0,0.2,0.1,0.3,0.2C25.2,30.6,25.1,30.7,25,30.9"/>
<path class="st0" d="M25,30.9c-0.1-0.1-0.3-0.2-0.3-0.3c0-0.1,0.1-0.2,0.2-0.3c0.1,0,0.2,0.1,0.3,0.2C25.2,30.6,25.1,30.7,25,30.9z"
	/>
<path d="M14.6,31.5c-0.1,0-0.2-0.1-0.2-0.1c0-0.2-0.1-0.3-0.1-0.5c0,0,0.2-0.1,0.2-0.1c0.1,0.1,0.2,0.3,0.2,0.4
	C14.7,31.2,14.6,31.3,14.6,31.5"/>
<path class="st0" d="M14.6,31.5c-0.1,0-0.2-0.1-0.2-0.1c0-0.2-0.1-0.3-0.1-0.5c0,0,0.2-0.1,0.2-0.1c0.1,0.1,0.2,0.3,0.2,0.4
	C14.7,31.2,14.6,31.3,14.6,31.5z"/>
<path d="M4.6,33.6c0.1,0.1,0.2,0.2,0.3,0.3c-0.1,0.1-0.2,0.2-0.2,0.2c-0.1,0-0.2-0.2-0.3-0.3C4.4,33.8,4.6,33.7,4.6,33.6"/>
<path class="st0" d="M4.6,33.6c0.1,0.1,0.2,0.2,0.3,0.3c-0.1,0.1-0.2,0.2-0.2,0.2c-0.1,0-0.2-0.2-0.3-0.3
	C4.4,33.8,4.6,33.7,4.6,33.6z"/>
<path d="M30.3,30.5c0.1-0.1,0.2-0.2,0.3-0.2c0.1,0,0.2,0.2,0.2,0.2c0,0.1-0.1,0.2-0.2,0.2C30.5,30.7,30.4,30.6,30.3,30.5"/>
<path class="st0" d="M30.3,30.5c0.1-0.1,0.2-0.2,0.3-0.2c0.1,0,0.2,0.2,0.2,0.2c0,0.1-0.1,0.2-0.2,0.2
	C30.5,30.7,30.4,30.6,30.3,30.5z"/>
</svg>
